{
  "name": "Account",
  "base": "PersistedModel",
  "idInjection": true,
  "options": {
    "validateUpsert": true
  },
  "properties": {
    "username": {
      "type": "string",
      "required": true
    },
    "id": {
      "type": "string",
      "id": true
    }
  },
  "validations": [],
  "relations": {
    "tasks": {
      "type": "hasMany",
      "model": "task",
      "foreignKey": "accountId",
      "through": "task_to_account",
      "keyThrough": "taskId"
    },
    "posts": {
      "type": "hasMany",
      "model": "posts",
      "foreignKey": ""
    },
    "parseUserTasks": {
      "type": "hasMany",
      "model": "ParseUserTasks",
      "foreignKey": "accountId",
      "through": "parseuser_to_account",
      "keyThrough": "taskId"
    },
    "followers": {
      "type": "hasMany",
      "model": "followers",
      "foreignKey": "accountId",
      "through": "followers_to_accounts",
      "keyThrough": "followerId"
    },
    "historyFroms": {
      "type": "hasOne",
      "model": "HistoryFrom",
      "foreignKey": ""
    }
  },
  "acls": [],
  "methods": {}
}
