{
  "name": "ParseUserTasks",
  "base": "PersistedModel",
  "idInjection": true,
  "options": {
    "validateUpsert": true
  },
  "properties": {
    "name": {
      "type": "string",
      "required": true
    },
    "started": {
      "type": "boolean",
      "required": true,
      "default": false
    },
    "firstLapTime": {
      "type": "date"
    }
  },
  "validations": [],
  "relations": {
    "reports": {
      "type": "hasMany",
      "model": "report",
      "polymoprhic": {
        "foreignKey": "taskId",
        "discriminator": "taskType"
      }
    },
    "accounts": {
      "type": "hasMany",
      "model": "Account",
      "foreignKey": "taskId",
      "through": "parseuser_to_accounts",
      "keyThrough": "accountId"
    },
    "instagrams": {
      "type": "hasMany",
      "model": "instagram",
      "foreignKey": "taskId",
      "through": "parseuser_to_instagram",
      "keyThrough": "instagramId"
    },
    "category": {
      "type": "belongsTo",
      "model": "category",
      "foreignKey": ""
    }
  },
  "acls": [],
  "methods": {}
}
