{
  "name": "followers_to_accounts",
  "base": "PersistedModel",
  "idInjection": true,
  "options": {
    "validateUpsert": true
  },
  "properties": {
    "createdAt": {
      "type": "date",
      "required": true,
      "default": "$now"
    },
    "required": {
      "type": true
    }
  },
  "validations": [],
  "relations": {
    "account": {
      "type": "belongsTo",
      "model": "Account",
      "foreignKey": "accountId"
    },
    "follower": {
      "type": "belongsTo",
      "model": "followers",
      "foreignKey": "followerId"
    },
    "parseUserTasks": {
      "type": "belongsTo",
      "model": "ParseUserTasks",
      "foreignKey": ""
    }
  },
  "acls": [],
  "methods": {}
}
